{
    "AWSTemplateFormatVersion": "2010-09-09",
    "Metadata": {
        "AWS::CloudFormation::Designer": {
            "d599311b-2d87-4fb6-a3c0-387c812dd9c0": {
                "size": {
                    "width": 410,
                    "height": 280
                },
                "position": {
                    "x": 100,
                    "y": 130
                },
                "z": 0,
                "embeds": [
                    "6c6336b8-0102-4712-a972-30b13d96cb7f",
                    "3549aa3a-221f-475a-8289-16ffe02c0783",
                    "d4adf574-c19b-4e85-80a5-dfc1bfae6778"
                ]
            },
            "d4adf574-c19b-4e85-80a5-dfc1bfae6778": {
                "size": {
                    "width": 170,
                    "height": 240
                },
                "position": {
                    "x": 129,
                    "y": 168
                },
                "z": 1,
                "parent": "d599311b-2d87-4fb6-a3c0-387c812dd9c0",
                "embeds": [
                    "9c758d7c-419f-4094-9351-b5b751ab1c05",
                    "d4fc3ba3-6e19-4ce4-972f-2f213796a191"
                ],
                "iscontainedinside": [
                    "d599311b-2d87-4fb6-a3c0-387c812dd9c0",
                    "d599311b-2d87-4fb6-a3c0-387c812dd9c0",
                    "d599311b-2d87-4fb6-a3c0-387c812dd9c0",
                    "d599311b-2d87-4fb6-a3c0-387c812dd9c0",
                    "d599311b-2d87-4fb6-a3c0-387c812dd9c0",
                    "d599311b-2d87-4fb6-a3c0-387c812dd9c0",
                    "d599311b-2d87-4fb6-a3c0-387c812dd9c0",
                    "d599311b-2d87-4fb6-a3c0-387c812dd9c0",
                    "d599311b-2d87-4fb6-a3c0-387c812dd9c0",
                    "d599311b-2d87-4fb6-a3c0-387c812dd9c0",
                    "d599311b-2d87-4fb6-a3c0-387c812dd9c0",
                    "d599311b-2d87-4fb6-a3c0-387c812dd9c0",
                    "d599311b-2d87-4fb6-a3c0-387c812dd9c0",
                    "d599311b-2d87-4fb6-a3c0-387c812dd9c0",
                    "d599311b-2d87-4fb6-a3c0-387c812dd9c0",
                    "d599311b-2d87-4fb6-a3c0-387c812dd9c0",
                    "d599311b-2d87-4fb6-a3c0-387c812dd9c0",
                    "d599311b-2d87-4fb6-a3c0-387c812dd9c0",
                    "d599311b-2d87-4fb6-a3c0-387c812dd9c0"
                ]
            },
            "d4fc3ba3-6e19-4ce4-972f-2f213796a191": {
                "size": {
                    "width": 60,
                    "height": 60
                },
                "position": {
                    "x": 160,
                    "y": 200
                },
                "z": 2,
                "parent": "d4adf574-c19b-4e85-80a5-dfc1bfae6778",
                "embeds": [],
                "iscontainedinside": [
                    "d4adf574-c19b-4e85-80a5-dfc1bfae6778",
                    "d4adf574-c19b-4e85-80a5-dfc1bfae6778",
                    "d4adf574-c19b-4e85-80a5-dfc1bfae6778",
                    "d4adf574-c19b-4e85-80a5-dfc1bfae6778",
                    "d4adf574-c19b-4e85-80a5-dfc1bfae6778",
                    "d4adf574-c19b-4e85-80a5-dfc1bfae6778",
                    "d4adf574-c19b-4e85-80a5-dfc1bfae6778",
                    "d4adf574-c19b-4e85-80a5-dfc1bfae6778",
                    "d4adf574-c19b-4e85-80a5-dfc1bfae6778",
                    "d4adf574-c19b-4e85-80a5-dfc1bfae6778",
                    "d4adf574-c19b-4e85-80a5-dfc1bfae6778",
                    "d4adf574-c19b-4e85-80a5-dfc1bfae6778",
                    "d4adf574-c19b-4e85-80a5-dfc1bfae6778",
                    "d4adf574-c19b-4e85-80a5-dfc1bfae6778",
                    "d4adf574-c19b-4e85-80a5-dfc1bfae6778",
                    "d4adf574-c19b-4e85-80a5-dfc1bfae6778",
                    "d4adf574-c19b-4e85-80a5-dfc1bfae6778",
                    "d4adf574-c19b-4e85-80a5-dfc1bfae6778"
                ],
                "dependson": [
                    "3549aa3a-221f-475a-8289-16ffe02c0783"
                ]
            },
            "9c758d7c-419f-4094-9351-b5b751ab1c05": {
                "size": {
                    "width": 60,
                    "height": 60
                },
                "position": {
                    "x": 160,
                    "y": 320
                },
                "z": 2,
                "parent": "d4adf574-c19b-4e85-80a5-dfc1bfae6778",
                "embeds": [],
                "iscontainedinside": [
                    "d599311b-2d87-4fb6-a3c0-387c812dd9c0"
                ]
            },
            "922ffdc9-7d45-4a25-ab05-1cbae427ef4e": {
                "size": {
                    "width": 60,
                    "height": 60
                },
                "position": {
                    "x": 610,
                    "y": 220
                },
                "z": 0,
                "embeds": []
            },
            "c03a3432-bada-480c-be84-9ab8750cc0ef": {
                "source": {
                    "id": "d599311b-2d87-4fb6-a3c0-387c812dd9c0"
                },
                "target": {
                    "id": "922ffdc9-7d45-4a25-ab05-1cbae427ef4e"
                },
                "z": 0
            },
            "6c6336b8-0102-4712-a972-30b13d96cb7f": {
                "size": {
                    "width": 110,
                    "height": 80
                },
                "position": {
                    "x": 340,
                    "y": 300
                },
                "z": 1,
                "parent": "d599311b-2d87-4fb6-a3c0-387c812dd9c0",
                "embeds": [],
                "iscontainedinside": [
                    "d599311b-2d87-4fb6-a3c0-387c812dd9c0",
                    "d599311b-2d87-4fb6-a3c0-387c812dd9c0",
                    "d599311b-2d87-4fb6-a3c0-387c812dd9c0",
                    "d599311b-2d87-4fb6-a3c0-387c812dd9c0",
                    "d599311b-2d87-4fb6-a3c0-387c812dd9c0",
                    "d599311b-2d87-4fb6-a3c0-387c812dd9c0",
                    "d599311b-2d87-4fb6-a3c0-387c812dd9c0",
                    "d599311b-2d87-4fb6-a3c0-387c812dd9c0",
                    "d599311b-2d87-4fb6-a3c0-387c812dd9c0",
                    "d599311b-2d87-4fb6-a3c0-387c812dd9c0",
                    "d599311b-2d87-4fb6-a3c0-387c812dd9c0",
                    "d599311b-2d87-4fb6-a3c0-387c812dd9c0",
                    "d599311b-2d87-4fb6-a3c0-387c812dd9c0",
                    "d599311b-2d87-4fb6-a3c0-387c812dd9c0"
                ]
            },
            "3549aa3a-221f-475a-8289-16ffe02c0783": {
                "size": {
                    "width": 60,
                    "height": 60
                },
                "position": {
                    "x": 370,
                    "y": 150
                },
                "z": 1,
                "parent": "d599311b-2d87-4fb6-a3c0-387c812dd9c0",
                "embeds": [],
                "isassociatedwith": [
                    "922ffdc9-7d45-4a25-ab05-1cbae427ef4e"
                ],
                "iscontainedinside": [
                    "6c6336b8-0102-4712-a972-30b13d96cb7f",
                    "6c6336b8-0102-4712-a972-30b13d96cb7f"
                ],
                "dependson": [
                    "c03a3432-bada-480c-be84-9ab8750cc0ef"
                ]
            },
            "1356035e-362f-447c-9a3e-69968981c79b": {
                "source": {
                    "id": "6c6336b8-0102-4712-a972-30b13d96cb7f"
                },
                "target": {
                    "id": "d4adf574-c19b-4e85-80a5-dfc1bfae6778"
                },
                "z": 1
            }
        }
    },
    "Resources": {
        "VPC": {
            "Type": "AWS::EC2::VPC",
            "Properties": {
                "EnableDnsSupport": "true",
                "EnableDnsHostnames": "true",
                "CidrBlock": "10.0.0.0/16"
            },
            "Metadata": {
                "AWS::CloudFormation::Designer": {
                    "id": "d599311b-2d87-4fb6-a3c0-387c812dd9c0"
                }
            }
        },
        "PublicSubnet": {
            "Type": "AWS::EC2::Subnet",
            "Properties": {
                "VpcId": {
                    "Ref": "VPC"
                },
                    "CidrBlock": "10.0.0.0/24"
            },
            "Metadata": {
                "AWS::CloudFormation::Designer": {
                    "id": "d4adf574-c19b-4e85-80a5-dfc1bfae6778"
                }
            }
        },
        "WebserverInstance": {
            "Type": "AWS::EC2::Instance",
            "Properties": {
                "InstanceType": {
                    "Ref": "InstanceType"
                },
                "ImageId": {
                    "Fn::FindInMap": [
                        "AWSRegionArch2AMI",
                        {
                            "Ref": "AWS::Region"
                        },
                        {
                            "Fn::FindInMap": [
                                "AWSInstanceType2Arch",
                                {
                                    "Ref": "InstanceType"
                                },
                                "Arch"
                            ]
                        }
                    ]
                },
                "KeyName": {
                    "Ref": "KeyName"
                },
                "NetworkInterfaces": [
                    {
                        "GroupSet": [
                            {
                                "Ref": "WebserverSecurityGroup"
                            }
                        ],
                        "AssociatePublicIpAddress": "true",
                        "DeviceIndex": "0",
                        "DeleteOnTermination": "true",
                        "SubnetId": {
                            "Ref": "PublicSubnet"
                        }
                    }
                ],
                "UserData": {
                    "Fn::Base64": {
                        "Fn::Join": [
                            "",
                            [
                                "#!/bin/bash -xe\n",
                                "yum install -y aws-cfn-bootstrap\n",
                                "# Install the files and packages from the metadata\n",
                                "/opt/aws/bin/cfn-init -v ",
                                "         --stack ",
                                {
                                    "Ref": "AWS::StackName"
                                },
                                "         --resource WebserverInstance ",
                                "         --configsets All ",
                                "         --region ",
                                {
                                    "Ref": "AWS::Region"
                                },
                                "\n",
                                "# Signal the status from cfn-init\n",
                                "/opt/aws/bin/cfn-signal -e $? ",
                                "         --stack ",
                                {
                                    "Ref": "AWS::StackName"
                                },
                                "         --resource WebserverInstance ",
                                "         --region ",
                                {
                                    "Ref": "AWS::Region"
                                },
                                "\n"
                            ]
                        ]
                    }
                }
            },
            "Metadata": {
                "AWS::CloudFormation::Designer": {
                    "id": "d4fc3ba3-6e19-4ce4-972f-2f213796a191"
                },
                "AWS::CloudFormation::Init": {
                    "configSets": {
                        "All": [
                            "ConfigureSampleApp"
                        ]
                    },
                    "ConfigureSampleApp": {
                        "packages": {
                            "yum": {
                                "httpd": []
                            }
                        },
                        "files": {
                            "/var/www/html/index.html": {
                                "content": {
                                    "Fn::Join": [
                                        "\n",
                                        [
                                            "<h1>Congratulations, you have successfully launched the AWS CloudFormation sample.</h1>"
                                        ]
                                    ]
                                },
                                "mode": "000644",
                                "owner": "root",
                                "group": "root"
                            }
                        },
                        "services": {
                            "sysvinit": {
                                "httpd": {
                                    "enabled": "true",
                                    "ensureRunning": "true"
                                }
                            }
                        }
                    }
                }
            },
            "DependsOn": [
                "PublicRoute"
            ]
        },
        "WebserverSecurityGroup": {
            "Type": "AWS::EC2::SecurityGroup",
            "Properties": {
                "VpcId": {
                    "Ref": "VPC"
                },
                "GroupDescription": "Allow access from HTTP and SSH traffic",
                "SecurityGroupIngress": [
                    {
                        "IpProtocol": "tcp",
                        "FromPort": "80",
                        "ToPort": "80",
                        "CidrIp": "0.0.0.0/0"
                    },
                    {
                        "IpProtocol": "tcp",
                        "FromPort": "22",
                        "ToPort": "22",
                        "CidrIp": {
                            "Ref": "SSHLocation"
                        }
                    }
                ]
            },
            "Metadata": {
                "AWS::CloudFormation::Designer": {
                    "id": "9c758d7c-419f-4094-9351-b5b751ab1c05"
                }
            }
        },
        "InternetGateway": {
            "Type": "AWS::EC2::InternetGateway",
            "Properties": {},
            "Metadata": {
                "AWS::CloudFormation::Designer": {
                    "id": "922ffdc9-7d45-4a25-ab05-1cbae427ef4e"
                }
            }
        },
        "EC2VPCG1SENT": {
            "Type": "AWS::EC2::VPCGatewayAttachment",
            "Properties": {
                "VpcId": {
                    "Ref": "VPC"
                },
                "InternetGatewayId": {
                    "Ref": "InternetGateway"
                }
            },
            "Metadata": {
                "AWS::CloudFormation::Designer": {
                    "id": "c03a3432-bada-480c-be84-9ab8750cc0ef"
                }
            }
        },
        "PublicRouteTable": {
            "Type": "AWS::EC2::RouteTable",
            "Properties": {
                "VpcId": {
                    "Ref": "VPC"
                }
            },
            "Metadata": {
                "AWS::CloudFormation::Designer": {
                    "id": "6c6336b8-0102-4712-a972-30b13d96cb7f"
                }
            }
        },
        "PublicRoute": {
            "Type": "AWS::EC2::Route",
            "Properties": {
                "DestinationCidrBlock": "0.0.0.0/0",
                "RouteTableId": {
                    "Ref": "PublicRouteTable"
                },
                "GatewayId": {
                    "Ref": "InternetGateway"
                }
            },
            "Metadata": {
                "AWS::CloudFormation::Designer": {
                    "id": "3549aa3a-221f-475a-8289-16ffe02c0783"
                }
            },
            "DependsOn": [
                "EC2VPCG1SENT"
            ]
        },
        "EC2SRTA4QBDH": {
            "Type": "AWS::EC2::SubnetRouteTableAssociation",
            "Properties": {
                "RouteTableId": {
                    "Ref": "PublicRouteTable"
                },
                "SubnetId": {
                    "Ref": "PublicSubnet"
                }
            },
            "Metadata": {
                "AWS::CloudFormation::Designer": {
                    "id": "1356035e-362f-447c-9a3e-69968981c79b"
                }
            }
        }
    },
    "Parameters": {
        "InstanceType": {
            "Description": "WebServer EC2 instance type",
            "Type": "String",
            "Default": "t2.micro",
            "AllowedValues": [
                "t1.micro",
                "t2.micro",
                "t2.small",
                "t2.medium",
                "m1.small",
                "m1.medium",
                "m1.large",
                "m1.xlarge",
                "m2.xlarge",
                "m2.2xlarge",
                "m2.4xlarge",
                "m3.medium",
                "m3.large",
                "m3.xlarge",
                "m3.2xlarge",
                "c1.medium",
                "c1.xlarge",
                "c3.large",
                "c3.xlarge",
                "c3.2xlarge",
                "c3.4xlarge",
                "c3.8xlarge",
                "c4.large",
                "c4.xlarge",
                "c4.2xlarge",
                "c4.4xlarge",
                "c4.8xlarge",
                "g2.2xlarge",
                "r3.large",
                "r3.xlarge",
                "r3.2xlarge",
                "r3.4xlarge",
                "r3.8xlarge",
                "i2.xlarge",
                "i2.2xlarge",
                "i2.4xlarge",
                "i2.8xlarge",
                "d2.xlarge",
                "d2.2xlarge",
                "d2.4xlarge",
                "d2.8xlarge",
                "hi1.4xlarge",
                "hs1.8xlarge",
                "cr1.8xlarge",
                "cc2.8xlarge",
                "cg1.4xlarge"
            ],
            "ConstraintDescription": "must be a valid EC2 instance type."
        },
        "KeyName": {
            "Description": "Name of an EC2 KeyPair to enable SSH access to the instance.",
            "Type": "AWS::EC2::KeyPair::KeyName",
            "ConstraintDescription": "must be the name of an existing EC2 KeyPair."
        },
        "SSHLocation": {
            "Description": " The IP address range that can be used to access the web server using SSH.",
            "Type": "String",
            "MinLength": "9",
            "MaxLength": "18",
            "Default": "0.0.0.0/0",
            "AllowedPattern": "(\\d{1,3})\\.(\\d{1,3})\\.(\\d{1,3})\\.(\\d{1,3})/(\\d{1,2})",
            "ConstraintDescription": "must be a valid IP CIDR range of the form x.x.x.x/x."
        }
    },
    "Mappings": {
        "AWSInstanceType2Arch": {
            "t1.micro": {
                "Arch": "PV64"
            },
            "t2.micro": {
                "Arch": "HVM64"
            },
            "t2.small": {
                "Arch": "HVM64"
            },
            "t2.medium": {
                "Arch": "HVM64"
            },
            "m1.small": {
                "Arch": "PV64"
            },
            "m1.medium": {
                "Arch": "PV64"
            },
            "m1.large": {
                "Arch": "PV64"
            },
            "m1.xlarge": {
                "Arch": "PV64"
            },
            "m2.xlarge": {
                "Arch": "PV64"
            },
            "m2.2xlarge": {
                "Arch": "PV64"
            },
            "m2.4xlarge": {
                "Arch": "PV64"
            },
            "m3.medium": {
                "Arch": "HVM64"
            },
            "m3.large": {
                "Arch": "HVM64"
            },
            "m3.xlarge": {
                "Arch": "HVM64"
            },
            "m3.2xlarge": {
                "Arch": "HVM64"
            },
            "c1.medium": {
                "Arch": "PV64"
            },
            "c1.xlarge": {
                "Arch": "PV64"
            },
            "c3.large": {
                "Arch": "HVM64"
            },
            "c3.xlarge": {
                "Arch": "HVM64"
            },
            "c3.2xlarge": {
                "Arch": "HVM64"
            },
            "c3.4xlarge": {
                "Arch": "HVM64"
            },
            "c3.8xlarge": {
                "Arch": "HVM64"
            },
            "c4.large": {
                "Arch": "HVM64"
            },
            "c4.xlarge": {
                "Arch": "HVM64"
            },
            "c4.2xlarge": {
                "Arch": "HVM64"
            },
            "c4.4xlarge": {
                "Arch": "HVM64"
            },
            "c4.8xlarge": {
                "Arch": "HVM64"
            },
            "g2.2xlarge": {
                "Arch": "HVMG2"
            },
            "r3.large": {
                "Arch": "HVM64"
            },
            "r3.xlarge": {
                "Arch": "HVM64"
            },
            "r3.2xlarge": {
                "Arch": "HVM64"
            },
            "r3.4xlarge": {
                "Arch": "HVM64"
            },
            "r3.8xlarge": {
                "Arch": "HVM64"
            },
            "i2.xlarge": {
                "Arch": "HVM64"
            },
            "i2.2xlarge": {
                "Arch": "HVM64"
            },
            "i2.4xlarge": {
                "Arch": "HVM64"
            },
            "i2.8xlarge": {
                "Arch": "HVM64"
            },
            "d2.xlarge": {
                "Arch": "HVM64"
            },
            "d2.2xlarge": {
                "Arch": "HVM64"
            },
            "d2.4xlarge": {
                "Arch": "HVM64"
            },
            "d2.8xlarge": {
                "Arch": "HVM64"
            },
            "hi1.4xlarge": {
                "Arch": "HVM64"
            },
            "hs1.8xlarge": {
                "Arch": "HVM64"
            },
            "cr1.8xlarge": {
                "Arch": "HVM64"
            },
            "cc2.8xlarge": {
                "Arch": "HVM64"
            }
        },
        "AWSRegionArch2AMI": {
            "us-east-1": {
                "PV64": "ami-1ccae774",
                "HVM64": "ami-1ecae776",
                "HVMG2": "ami-8c6b40e4"
            },
            "us-west-2": {
                "PV64": "ami-ff527ecf",
                "HVM64": "ami-e7527ed7",
                "HVMG2": "ami-abbe919b"
            },
            "us-west-1": {
                "PV64": "ami-d514f291",
                "HVM64": "ami-d114f295",
                "HVMG2": "ami-f31ffeb7"
            },
            "eu-west-1": {
                "PV64": "ami-bf0897c8",
                "HVM64": "ami-a10897d6",
                "HVMG2": "ami-d5bc24a2"
            },
            "eu-central-1": {
                "PV64": "ami-ac221fb1",
                "HVM64": "ami-a8221fb5",
                "HVMG2": "ami-7cd2ef61"
            },
            "ap-northeast-1": {
                "PV64": "ami-27f90e27",
                "HVM64": "ami-cbf90ecb",
                "HVMG2": "ami-6318e863"
            },
            "ap-southeast-1": {
                "PV64": "ami-acd9e8fe",
                "HVM64": "ami-68d8e93a",
                "HVMG2": "ami-3807376a"
            },
            "ap-southeast-2": {
                "PV64": "ami-ff9cecc5",
                "HVM64": "ami-fd9cecc7",
                "HVMG2": "ami-89790ab3"
            },
            "sa-east-1": {
                "PV64": "ami-bb2890a6",
                "HVM64": "ami-b52890a8",
                "HVMG2": "NOT_SUPPORTED"
            },
            "cn-north-1": {
                "PV64": "ami-fa39abc3",
                "HVM64": "ami-f239abcb",
                "HVMG2": "NOT_SUPPORTED"
            }
        }
    },
    "Outputs": {
        "URL": {
            "Value": {
                "Fn::Join": [
                    "",
                    [
                        "http://",
                        {
                            "Fn::GetAtt": [
                                "WebserverInstance",
                                "PublicIp"
                            ]
                        }
                    ]
                ]
            },
            "Description": "Newly created application URL"
        }
    }
}